{
  "project_info": {
    "project_number": "556076853413",
    "firebase_url": "https://studentalumnischeduling.firebaseio.com",
    "project_id": "studentalumnischeduling",
    "storage_bucket": "studentalumnischeduling.appspot.com"
  },
  "client": [
    {
      "client_info": {
        "mobilesdk_app_id": "1:556076853413:android:13f4805dde5303ac",
        "android_client_info": {
          "package_name": "com.insane.lovish888.studentalumnischeduling"
        }
      },
      "oauth_client": [
        {
          "client_id": "556076853413-s67tvlqkdugajp74q2hh7tvefd1k5e2m.apps.googleusercontent.com",
          "client_type": 1,
          "android_info": {
            "package_name": "com.insane.lovish888.studentalumnischeduling",
            "certificate_hash": "dd4b033c6619569a2164acd55c17ee2f615fc0f1"
          }
        },
        {
          "client_id": "556076853413-rbn8sp109p4p080f09ng7va73v45f72o.apps.googleusercontent.com",
          "client_type": 3
        }
      ],
      "api_key": [
        {
          "current_key": "AIzaSyCaA4WsT_PmRIfm2dSEuMsajzrMZhHak04"
        }
      ],
      "services": {
        "analytics_service": {
          "status": 1
        },
        "appinvite_service": {
          "status": 2,
          "other_platform_oauth_client": [
            {
              "client_id": "556076853413-rbn8sp109p4p080f09ng7va73v45f72o.apps.googleusercontent.com",
              "client_type": 3
            }
          ]
        },
        "ads_service": {
          "status": 2
        }
      }
    }
  ],
  "configuration_version": "1"
}